{
  "$schema": "http://json-schema.org/draft-04/schema",
  "id": "https://metadata.datadrivendiscovery.org/schemas/v0/problem.json",
  "title": "Problem description",
  "description": "Schema for problem description.",
  "type": "object",
  "properties": {
    "schema": {
      "$ref": "https://metadata.datadrivendiscovery.org/schemas/v0/definitions.json#/definitions/schema"
    },
    "problem": {
      "$ref": "https://metadata.datadrivendiscovery.org/schemas/v0/definitions.json#/definitions/problem"
    },
    "inputs": {
      "$ref": "https://metadata.datadrivendiscovery.org/schemas/v0/definitions.json#/definitions/problem_inputs"
    },
    "outputs": {
      "$ref": "https://metadata.datadrivendiscovery.org/schemas/v0/definitions.json#/definitions/problem_outputs"
    },
    "data_augmentation": {
      "$ref": "https://metadata.datadrivendiscovery.org/schemas/v0/definitions.json#/definitions/data_augmentation"
    }
  },
  "required": [
    "schema",
    "problem"
  ],
  "additionalProperties": true
}
